{
    "apps" : [{
      "name": "my-app",
      "script": "app.js",
      "watch": true, 
      "instances": "1",
     "exec_mode": "cluster",
      "env"         : {
        "NODE_ENV": "production"
     }
    },
    {
        "name": "my-app1",
        "script": "../orderdashboard/app.js",
        "watch": true, 
        "instances": "2",
        "exec_mode": "cluster",
        "env"         : {
          "NODE_ENV": "development"
       }
      }
]
  }